EESchema Schematic File Version 4
LIBS:pstick-cache
EELAYER 30 0
EELAYER END
$Descr USLetter 11000 8500
encoding utf-8
Sheet 1 1
Title "pSTICK"
Date "2019-08-30"
Rev "3"
Comp ""
Comment1 "Licensed under CERN OHL v.1.2"
Comment2 ""
Comment3 ""
Comment4 ""
$EndDescr
$Comp
L Device:Q_PMOS_GSD Q1
U 1 1 5D6A14BD
P 5300 2150
F 0 "Q1" H 5506 2196 50  0000 L CNN
F 1 "PMV33UPE" H 5506 2105 50  0000 L CNN
F 2 "Package_TO_SOT_SMD:SOT-23" H 5500 2250 50  0001 C CNN
F 3 "~" H 5300 2150 50  0001 C CNN
	1    5300 2150
	1    0    0    -1  
$EndComp
Text GLabel 2700 1850 2    50   Input ~ 0
Vmot
$Comp
L Regulator_Linear:AMS1117-5.0 U1
U 1 1 5D6A8018
P 4100 1250
F 0 "U1" H 4100 1492 50  0000 C CNN
F 1 "MCP1702" H 4100 1401 50  0000 C CNN
F 2 "Package_TO_SOT_SMD:SOT-23" H 4100 1450 50  0001 C CNN
F 3 "http://www.advanced-monolithic.com/pdf/ds1117.pdf" H 4200 1000 50  0001 C CNN
	1    4100 1250
	1    0    0    -1  
$EndComp
Text GLabel 3250 1250 0    50   Input ~ 0
Vmot
$Comp
L power:GND #PWR0101
U 1 1 5D6A937F
P 4100 1550
F 0 "#PWR0101" H 4100 1300 50  0001 C CNN
F 1 "GND" H 4105 1377 50  0000 C CNN
F 2 "" H 4100 1550 50  0001 C CNN
F 3 "" H 4100 1550 50  0001 C CNN
	1    4100 1550
	1    0    0    -1  
$EndComp
$Comp
L power:+5V #PWR0102
U 1 1 5D6A9CAC
P 4400 1250
F 0 "#PWR0102" H 4400 1100 50  0001 C CNN
F 1 "+5V" V 4415 1378 50  0000 L CNN
F 2 "" H 4400 1250 50  0001 C CNN
F 3 "" H 4400 1250 50  0001 C CNN
	1    4400 1250
	0    1    1    0   
$EndComp
$Comp
L power:PWR_FLAG #FLG0101
U 1 1 5D6A9F79
P 2700 1850
F 0 "#FLG0101" H 2700 1925 50  0001 C CNN
F 1 "PWR_FLAG" H 2700 2023 50  0001 C CNN
F 2 "" H 2700 1850 50  0001 C CNN
F 3 "~" H 2700 1850 50  0001 C CNN
	1    2700 1850
	1    0    0    -1  
$EndComp
$Comp
L Device:C_Small C1
U 1 1 5D6AC513
P 3800 1350
F 0 "C1" H 3600 1300 50  0000 L CNN
F 1 "1uF" H 3450 1200 50  0000 L CNN
F 2 "Capacitor_SMD:C_0402_1005Metric" H 3800 1350 50  0001 C CNN
F 3 "~" H 3800 1350 50  0001 C CNN
	1    3800 1350
	1    0    0    -1  
$EndComp
$Comp
L Device:C_Small C2
U 1 1 5D6ACE53
P 4400 1350
F 0 "C2" H 4550 1300 50  0000 L CNN
F 1 "4.7uF" H 4550 1200 50  0000 L CNN
F 2 "Capacitor_SMD:C_0402_1005Metric" H 4400 1350 50  0001 C CNN
F 3 "~" H 4400 1350 50  0001 C CNN
	1    4400 1350
	1    0    0    -1  
$EndComp
Connection ~ 4400 1250
Wire Wire Line
	5100 2350 5400 2350
$Comp
L power:+5V #PWR0103
U 1 1 5D6B19D7
P 5400 2350
F 0 "#PWR0103" H 5400 2200 50  0001 C CNN
F 1 "+5V" H 5400 2250 50  0000 C CNN
F 2 "" H 5400 2350 50  0001 C CNN
F 3 "" H 5400 2350 50  0001 C CNN
	1    5400 2350
	1    0    0    -1  
$EndComp
Connection ~ 5400 2350
Text GLabel 3100 2450 2    50   Input ~ 0
Step_Out
Text GLabel 3100 2650 2    50   Input ~ 0
Dir_Out
$Comp
L Driver_Motor:Pololu_Breakout_DRV8825 A1
U 1 1 5D69D065
P 2700 2450
F 0 "A1" H 2700 3231 50  0000 C CNN
F 1 "Pololu_Breakout_DRV8825" H 2700 3140 50  0001 C CNN
F 2 "Module:Pololu_Breakout-16_15.2x20.3mm" H 2900 1650 50  0001 L CNN
F 3 "https://www.pololu.com/product/2982" H 2800 2150 50  0001 C CNN
	1    2700 2450
	1    0    0    -1  
$EndComp
$Comp
L power:GND #PWR0104
U 1 1 5D6B394E
P 3100 2750
F 0 "#PWR0104" H 3100 2500 50  0001 C CNN
F 1 "GND" V 3105 2622 50  0000 R CNN
F 2 "" H 3100 2750 50  0001 C CNN
F 3 "" H 3100 2750 50  0001 C CNN
	1    3100 2750
	0    -1   -1   0   
$EndComp
$Comp
L power:GND #PWR0105
U 1 1 5D6B3F18
P 2800 3250
F 0 "#PWR0105" H 2800 3000 50  0001 C CNN
F 1 "GND" H 2805 3077 50  0000 C CNN
F 2 "" H 2800 3250 50  0001 C CNN
F 3 "" H 2800 3250 50  0001 C CNN
	1    2800 3250
	1    0    0    -1  
$EndComp
$Comp
L power:GND #PWR0106
U 1 1 5D6B51C6
P 2700 3250
F 0 "#PWR0106" H 2700 3000 50  0001 C CNN
F 1 "GND" H 2705 3077 50  0000 C CNN
F 2 "" H 2700 3250 50  0001 C CNN
F 3 "" H 2700 3250 50  0001 C CNN
	1    2700 3250
	1    0    0    -1  
$EndComp
NoConn ~ 2300 3050
NoConn ~ 2300 2950
NoConn ~ 2300 2850
Text GLabel 2300 2450 0    50   Input ~ 0
~En
Text GLabel 2300 2550 0    50   Input ~ 0
Step
Text GLabel 2300 2650 0    50   Input ~ 0
Dir
NoConn ~ 2300 2250
NoConn ~ 2300 2150
NoConn ~ 2300 2050
Text GLabel 4050 2150 0    50   Input ~ 0
~En
$Comp
L Device:R_Small R1
U 1 1 5D69C55C
P 5100 2250
F 0 "R1" H 4950 2100 50  0000 L CNN
F 1 "1K" H 4950 2200 50  0000 L CNN
F 2 "Resistor_SMD:R_0402_1005Metric" H 5100 2250 50  0001 C CNN
F 3 "~" H 5100 2250 50  0001 C CNN
	1    5100 2250
	1    0    0    -1  
$EndComp
$Comp
L Device:Q_PMOS_GSD Q2
U 1 1 5D6BEA00
P 5300 2900
F 0 "Q2" H 5506 2946 50  0000 L CNN
F 1 "PMV33UPE" H 5506 2855 50  0000 L CNN
F 2 "Package_TO_SOT_SMD:SOT-23" H 5500 3000 50  0001 C CNN
F 3 "~" H 5300 2900 50  0001 C CNN
	1    5300 2900
	1    0    0    -1  
$EndComp
Wire Wire Line
	5100 3100 5400 3100
$Comp
L power:+5V #PWR0107
U 1 1 5D6BEA07
P 5400 3100
F 0 "#PWR0107" H 5400 2950 50  0001 C CNN
F 1 "+5V" H 5400 3000 50  0000 C CNN
F 2 "" H 5400 3100 50  0001 C CNN
F 3 "" H 5400 3100 50  0001 C CNN
	1    5400 3100
	1    0    0    -1  
$EndComp
Connection ~ 5400 3100
Text GLabel 4050 2850 0    50   Input ~ 0
Step
$Comp
L Device:R_Small R2
U 1 1 5D6BEA0F
P 5100 3000
F 0 "R2" H 4950 2850 50  0000 L CNN
F 1 "1K" H 4950 2950 50  0000 L CNN
F 2 "Resistor_SMD:R_0402_1005Metric" H 5100 3000 50  0001 C CNN
F 3 "~" H 5100 3000 50  0001 C CNN
	1    5100 3000
	1    0    0    -1  
$EndComp
$Comp
L Device:Q_PMOS_GSD Q3
U 1 1 5D6BF479
P 5300 3600
F 0 "Q3" H 5506 3646 50  0000 L CNN
F 1 "PMV33UPE" H 5506 3555 50  0000 L CNN
F 2 "Package_TO_SOT_SMD:SOT-23" H 5500 3700 50  0001 C CNN
F 3 "~" H 5300 3600 50  0001 C CNN
	1    5300 3600
	1    0    0    -1  
$EndComp
Wire Wire Line
	5100 3800 5400 3800
$Comp
L power:+5V #PWR0108
U 1 1 5D6BF480
P 5400 3800
F 0 "#PWR0108" H 5400 3650 50  0001 C CNN
F 1 "+5V" H 5400 3700 50  0000 C CNN
F 2 "" H 5400 3800 50  0001 C CNN
F 3 "" H 5400 3800 50  0001 C CNN
	1    5400 3800
	1    0    0    -1  
$EndComp
Connection ~ 5400 3800
Text GLabel 4050 3550 0    50   Input ~ 0
Dir
$Comp
L Device:R_Small R3
U 1 1 5D6BF488
P 5100 3700
F 0 "R3" H 4950 3550 50  0000 L CNN
F 1 "1K" H 4950 3650 50  0000 L CNN
F 2 "Resistor_SMD:R_0402_1005Metric" H 5100 3700 50  0001 C CNN
F 3 "~" H 5100 3700 50  0001 C CNN
	1    5100 3700
	1    0    0    -1  
$EndComp
Text GLabel 5400 2700 0    50   Input ~ 0
Step_Out
Text GLabel 5400 3400 0    50   Input ~ 0
Dir_Out
$Comp
L power:GND #PWR0109
U 1 1 5D6E3CE0
P 3800 1450
F 0 "#PWR0109" H 3800 1200 50  0001 C CNN
F 1 "GND" H 3805 1277 50  0000 C CNN
F 2 "" H 3800 1450 50  0001 C CNN
F 3 "" H 3800 1450 50  0001 C CNN
	1    3800 1450
	1    0    0    -1  
$EndComp
$Comp
L power:GND #PWR0110
U 1 1 5D6E4159
P 4400 1450
F 0 "#PWR0110" H 4400 1200 50  0001 C CNN
F 1 "GND" H 4405 1277 50  0000 C CNN
F 2 "" H 4400 1450 50  0001 C CNN
F 3 "" H 4400 1450 50  0001 C CNN
	1    4400 1450
	1    0    0    -1  
$EndComp
$Comp
L Device:Polyfuse F1
U 1 1 5D719A93
P 3400 1250
F 0 "F1" V 3175 1250 50  0000 C CNN
F 1 "SF-0402FP125-2 " V 3266 1250 50  0000 C CNN
F 2 "Fuse:Fuse_0402_1005Metric" H 3450 1050 50  0001 L CNN
F 3 "~" H 3400 1250 50  0001 C CNN
	1    3400 1250
	0    1    1    0   
$EndComp
Wire Wire Line
	3550 1250 3800 1250
Connection ~ 3800 1250
$Comp
L Device:R_Small R4
U 1 1 5D726AF6
P 5800 1950
F 0 "R4" V 5604 1950 50  0000 C CNN
F 1 "10K" V 5695 1950 50  0000 C CNN
F 2 "Resistor_SMD:R_0402_1005Metric" H 5800 1950 50  0001 C CNN
F 3 "~" H 5800 1950 50  0001 C CNN
	1    5800 1950
	0    1    1    0   
$EndComp
Wire Wire Line
	5700 1950 5400 1950
$Comp
L power:GND #PWR01
U 1 1 5D727879
P 5900 1950
F 0 "#PWR01" H 5900 1700 50  0001 C CNN
F 1 "GND" H 5905 1777 50  0000 C CNN
F 2 "" H 5900 1950 50  0001 C CNN
F 3 "" H 5900 1950 50  0001 C CNN
	1    5900 1950
	1    0    0    -1  
$EndComp
$Comp
L Device:R_Small R5
U 1 1 5D72E157
P 5800 2700
F 0 "R5" V 5604 2700 50  0000 C CNN
F 1 "10K" V 5695 2700 50  0000 C CNN
F 2 "Resistor_SMD:R_0402_1005Metric" H 5800 2700 50  0001 C CNN
F 3 "~" H 5800 2700 50  0001 C CNN
	1    5800 2700
	0    1    1    0   
$EndComp
Wire Wire Line
	5700 2700 5400 2700
$Comp
L power:GND #PWR02
U 1 1 5D72E15E
P 5900 2700
F 0 "#PWR02" H 5900 2450 50  0001 C CNN
F 1 "GND" H 5905 2527 50  0000 C CNN
F 2 "" H 5900 2700 50  0001 C CNN
F 3 "" H 5900 2700 50  0001 C CNN
	1    5900 2700
	1    0    0    -1  
$EndComp
$Comp
L Device:R_Small R6
U 1 1 5D72E9EC
P 5800 3400
F 0 "R6" V 5604 3400 50  0000 C CNN
F 1 "10K" V 5695 3400 50  0000 C CNN
F 2 "Resistor_SMD:R_0402_1005Metric" H 5800 3400 50  0001 C CNN
F 3 "~" H 5800 3400 50  0001 C CNN
	1    5800 3400
	0    1    1    0   
$EndComp
Wire Wire Line
	5700 3400 5400 3400
$Comp
L power:GND #PWR03
U 1 1 5D72E9F3
P 5900 3400
F 0 "#PWR03" H 5900 3150 50  0001 C CNN
F 1 "GND" H 5905 3227 50  0000 C CNN
F 2 "" H 5900 3400 50  0001 C CNN
F 3 "" H 5900 3400 50  0001 C CNN
	1    5900 3400
	1    0    0    -1  
$EndComp
Text GLabel 5400 1950 0    50   Input ~ 0
~Enable_Out
Text GLabel 3100 2350 2    50   Input ~ 0
~Enable_Out
$Comp
L Device:Q_NMOS_GSD Q4
U 1 1 5D753E48
P 4250 2150
F 0 "Q4" H 4456 2196 50  0000 L CNN
F 1 "PMV20XNE" H 4456 2105 50  0000 L CNN
F 2 "Package_TO_SOT_SMD:SOT-23" H 4450 2250 50  0001 C CNN
F 3 "~" H 4250 2150 50  0001 C CNN
	1    4250 2150
	1    0    0    -1  
$EndComp
$Comp
L power:GND #PWR04
U 1 1 5D754A0F
P 4350 2350
F 0 "#PWR04" H 4350 2100 50  0001 C CNN
F 1 "GND" H 4355 2177 50  0000 C CNN
F 2 "" H 4350 2350 50  0001 C CNN
F 3 "" H 4350 2350 50  0001 C CNN
	1    4350 2350
	1    0    0    -1  
$EndComp
$Comp
L Device:R_Small R7
U 1 1 5D7571E8
P 4050 2250
F 0 "R7" H 3900 2150 50  0000 L CNN
F 1 "1K" H 3900 2250 50  0000 L CNN
F 2 "Resistor_SMD:R_0402_1005Metric" H 4050 2250 50  0001 C CNN
F 3 "~" H 4050 2250 50  0001 C CNN
	1    4050 2250
	1    0    0    -1  
$EndComp
Wire Wire Line
	4050 2350 4350 2350
Connection ~ 4350 2350
$Comp
L Device:Q_NMOS_GSD Q5
U 1 1 5D76E9F2
P 4250 2850
F 0 "Q5" H 4456 2896 50  0000 L CNN
F 1 "PMV20XNE" H 4456 2805 50  0000 L CNN
F 2 "Package_TO_SOT_SMD:SOT-23" H 4450 2950 50  0001 C CNN
F 3 "~" H 4250 2850 50  0001 C CNN
	1    4250 2850
	1    0    0    -1  
$EndComp
$Comp
L power:GND #PWR05
U 1 1 5D76E9F8
P 4350 3050
F 0 "#PWR05" H 4350 2800 50  0001 C CNN
F 1 "GND" H 4355 2877 50  0000 C CNN
F 2 "" H 4350 3050 50  0001 C CNN
F 3 "" H 4350 3050 50  0001 C CNN
	1    4350 3050
	1    0    0    -1  
$EndComp
$Comp
L Device:R_Small R8
U 1 1 5D76E9FE
P 4050 2950
F 0 "R8" H 3900 2850 50  0000 L CNN
F 1 "1K" H 3900 2950 50  0000 L CNN
F 2 "Resistor_SMD:R_0402_1005Metric" H 4050 2950 50  0001 C CNN
F 3 "~" H 4050 2950 50  0001 C CNN
	1    4050 2950
	1    0    0    -1  
$EndComp
Wire Wire Line
	4050 3050 4350 3050
Connection ~ 4350 3050
$Comp
L Device:Q_NMOS_GSD Q6
U 1 1 5D76FBB1
P 4250 3550
F 0 "Q6" H 4456 3596 50  0000 L CNN
F 1 "PMV20XNE" H 4456 3505 50  0000 L CNN
F 2 "Package_TO_SOT_SMD:SOT-23" H 4450 3650 50  0001 C CNN
F 3 "~" H 4250 3550 50  0001 C CNN
	1    4250 3550
	1    0    0    -1  
$EndComp
$Comp
L power:GND #PWR06
U 1 1 5D76FBB7
P 4350 3750
F 0 "#PWR06" H 4350 3500 50  0001 C CNN
F 1 "GND" H 4355 3577 50  0000 C CNN
F 2 "" H 4350 3750 50  0001 C CNN
F 3 "" H 4350 3750 50  0001 C CNN
	1    4350 3750
	1    0    0    -1  
$EndComp
$Comp
L Device:R_Small R9
U 1 1 5D76FBBD
P 4050 3650
F 0 "R9" H 3900 3550 50  0000 L CNN
F 1 "1K" H 3900 3650 50  0000 L CNN
F 2 "Resistor_SMD:R_0402_1005Metric" H 4050 3650 50  0001 C CNN
F 3 "~" H 4050 3650 50  0001 C CNN
	1    4050 3650
	1    0    0    -1  
$EndComp
Wire Wire Line
	4050 3750 4350 3750
Connection ~ 4350 3750
Wire Wire Line
	4350 1950 4900 1950
Wire Wire Line
	4900 1950 4900 2150
Wire Wire Line
	4900 2150 5100 2150
Connection ~ 5100 2150
Wire Wire Line
	4350 2650 4900 2650
Wire Wire Line
	4900 2650 4900 2900
Wire Wire Line
	4900 2900 5100 2900
Connection ~ 5100 2900
Wire Wire Line
	4350 3350 4900 3350
Wire Wire Line
	4900 3350 4900 3600
Wire Wire Line
	4900 3600 5100 3600
Connection ~ 5100 3600
$EndSCHEMATC
