M48
; DRILL file {KiCad 5.1.4-1.fc30} date Sat 31 Aug 2019 11:07:24 PM EDT
; FORMAT={-:-/ absolute / inch / decimal}
; #@! TF.CreationDate,2019-08-31T23:07:24-04:00
; #@! TF.GenerationSoftware,Kicad,Pcbnew,5.1.4-1.fc30
; #@! TF.FileFunction,NonPlated,1,2,NPTH
FMAT,2
INCH
%
G90
G05
T0
M30
