G04 #@! TF.GenerationSoftware,KiCad,Pcbnew,5.1.4-1.fc30*
G04 #@! TF.CreationDate,2019-08-31T23:07:27-04:00*
G04 #@! TF.ProjectId,pstick,70737469-636b-42e6-9b69-6361645f7063,rev?*
G04 #@! TF.SameCoordinates,Original*
G04 #@! TF.FileFunction,Soldermask,Top*
G04 #@! TF.FilePolarity,Negative*
%FSLAX46Y46*%
G04 Gerber Fmt 4.6, Leading zero omitted, Abs format (unit mm)*
G04 Created by KiCad (PCBNEW 5.1.4-1.fc30) date 2019-08-31 23:07:27*
%MOMM*%
%LPD*%
G04 APERTURE LIST*
%ADD10C,0.100000*%
G04 APERTURE END LIST*
D10*
G36*
X146283938Y-116090716D02*
G01*
X146304557Y-116096971D01*
X146323553Y-116107124D01*
X146340208Y-116120792D01*
X146353876Y-116137447D01*
X146364029Y-116156443D01*
X146370284Y-116177062D01*
X146373000Y-116204640D01*
X146373000Y-116713360D01*
X146370284Y-116740938D01*
X146364029Y-116761557D01*
X146353876Y-116780553D01*
X146340208Y-116797208D01*
X146323553Y-116810876D01*
X146304557Y-116821029D01*
X146283938Y-116827284D01*
X146256360Y-116830000D01*
X145797640Y-116830000D01*
X145770062Y-116827284D01*
X145749443Y-116821029D01*
X145730447Y-116810876D01*
X145713792Y-116797208D01*
X145700124Y-116780553D01*
X145689971Y-116761557D01*
X145683716Y-116740938D01*
X145681000Y-116713360D01*
X145681000Y-116204640D01*
X145683716Y-116177062D01*
X145689971Y-116156443D01*
X145700124Y-116137447D01*
X145713792Y-116120792D01*
X145730447Y-116107124D01*
X145749443Y-116096971D01*
X145770062Y-116090716D01*
X145797640Y-116088000D01*
X146256360Y-116088000D01*
X146283938Y-116090716D01*
X146283938Y-116090716D01*
G37*
G36*
X145313938Y-116090716D02*
G01*
X145334557Y-116096971D01*
X145353553Y-116107124D01*
X145370208Y-116120792D01*
X145383876Y-116137447D01*
X145394029Y-116156443D01*
X145400284Y-116177062D01*
X145403000Y-116204640D01*
X145403000Y-116713360D01*
X145400284Y-116740938D01*
X145394029Y-116761557D01*
X145383876Y-116780553D01*
X145370208Y-116797208D01*
X145353553Y-116810876D01*
X145334557Y-116821029D01*
X145313938Y-116827284D01*
X145286360Y-116830000D01*
X144827640Y-116830000D01*
X144800062Y-116827284D01*
X144779443Y-116821029D01*
X144760447Y-116810876D01*
X144743792Y-116797208D01*
X144730124Y-116780553D01*
X144719971Y-116761557D01*
X144713716Y-116740938D01*
X144711000Y-116713360D01*
X144711000Y-116204640D01*
X144713716Y-116177062D01*
X144719971Y-116156443D01*
X144730124Y-116137447D01*
X144743792Y-116120792D01*
X144760447Y-116107124D01*
X144779443Y-116096971D01*
X144800062Y-116090716D01*
X144827640Y-116088000D01*
X145286360Y-116088000D01*
X145313938Y-116090716D01*
X145313938Y-116090716D01*
G37*
G36*
X137611824Y-115006314D02*
G01*
X137772243Y-115054977D01*
X137853122Y-115098208D01*
X137920079Y-115133997D01*
X138049660Y-115240342D01*
X138156005Y-115369923D01*
X138156006Y-115369925D01*
X138235025Y-115517759D01*
X138283688Y-115678178D01*
X138300118Y-115845001D01*
X138283688Y-116011824D01*
X138235025Y-116172243D01*
X138187583Y-116261000D01*
X138156005Y-116320079D01*
X138049660Y-116449660D01*
X137920079Y-116556005D01*
X137920077Y-116556006D01*
X137772243Y-116635025D01*
X137611824Y-116683688D01*
X137486805Y-116696001D01*
X137403197Y-116696001D01*
X137278178Y-116683688D01*
X137117759Y-116635025D01*
X136969925Y-116556006D01*
X136969923Y-116556005D01*
X136840342Y-116449660D01*
X136733997Y-116320079D01*
X136702419Y-116261000D01*
X136654977Y-116172243D01*
X136606314Y-116011824D01*
X136589884Y-115845001D01*
X136606314Y-115678178D01*
X136654977Y-115517759D01*
X136733996Y-115369925D01*
X136733997Y-115369923D01*
X136840342Y-115240342D01*
X136969923Y-115133997D01*
X137036880Y-115098208D01*
X137117759Y-115054977D01*
X137278178Y-115006314D01*
X137403197Y-114994001D01*
X137486805Y-114994001D01*
X137611824Y-115006314D01*
X137611824Y-115006314D01*
G37*
G36*
X150311824Y-115006314D02*
G01*
X150472243Y-115054977D01*
X150553122Y-115098208D01*
X150620079Y-115133997D01*
X150749660Y-115240342D01*
X150856005Y-115369923D01*
X150856006Y-115369925D01*
X150935025Y-115517759D01*
X150983688Y-115678178D01*
X151000118Y-115845001D01*
X150983688Y-116011824D01*
X150935025Y-116172243D01*
X150887583Y-116261000D01*
X150856005Y-116320079D01*
X150749660Y-116449660D01*
X150620079Y-116556005D01*
X150620077Y-116556006D01*
X150472243Y-116635025D01*
X150311824Y-116683688D01*
X150186805Y-116696001D01*
X150103197Y-116696001D01*
X149978178Y-116683688D01*
X149817759Y-116635025D01*
X149669925Y-116556006D01*
X149669923Y-116556005D01*
X149540342Y-116449660D01*
X149433997Y-116320079D01*
X149402419Y-116261000D01*
X149354977Y-116172243D01*
X149306314Y-116011824D01*
X149289884Y-115845001D01*
X149306314Y-115678178D01*
X149354977Y-115517759D01*
X149433996Y-115369925D01*
X149433997Y-115369923D01*
X149540342Y-115240342D01*
X149669923Y-115133997D01*
X149736880Y-115098208D01*
X149817759Y-115054977D01*
X149978178Y-115006314D01*
X150103197Y-114994001D01*
X150186805Y-114994001D01*
X150311824Y-115006314D01*
X150311824Y-115006314D01*
G37*
G36*
X145678000Y-115420000D02*
G01*
X144776000Y-115420000D01*
X144776000Y-114418000D01*
X145678000Y-114418000D01*
X145678000Y-115420000D01*
X145678000Y-115420000D01*
G37*
G36*
X147578000Y-115420000D02*
G01*
X146676000Y-115420000D01*
X146676000Y-114418000D01*
X147578000Y-114418000D01*
X147578000Y-115420000D01*
X147578000Y-115420000D01*
G37*
G36*
X143791938Y-114441716D02*
G01*
X143812557Y-114447971D01*
X143831553Y-114458124D01*
X143848208Y-114471792D01*
X143861876Y-114488447D01*
X143872029Y-114507443D01*
X143878284Y-114528062D01*
X143881000Y-114555640D01*
X143881000Y-115014360D01*
X143878284Y-115041938D01*
X143872029Y-115062557D01*
X143861876Y-115081553D01*
X143848208Y-115098208D01*
X143831553Y-115111876D01*
X143812557Y-115122029D01*
X143791938Y-115128284D01*
X143764360Y-115131000D01*
X143255640Y-115131000D01*
X143228062Y-115128284D01*
X143207443Y-115122029D01*
X143188447Y-115111876D01*
X143171792Y-115098208D01*
X143158124Y-115081553D01*
X143147971Y-115062557D01*
X143141716Y-115041938D01*
X143139000Y-115014360D01*
X143139000Y-114555640D01*
X143141716Y-114528062D01*
X143147971Y-114507443D01*
X143158124Y-114488447D01*
X143171792Y-114471792D01*
X143188447Y-114458124D01*
X143207443Y-114447971D01*
X143228062Y-114441716D01*
X143255640Y-114439000D01*
X143764360Y-114439000D01*
X143791938Y-114441716D01*
X143791938Y-114441716D01*
G37*
G36*
X141376938Y-113423716D02*
G01*
X141397557Y-113429971D01*
X141416553Y-113440124D01*
X141433208Y-113453792D01*
X141446876Y-113470447D01*
X141457029Y-113489443D01*
X141463284Y-113510062D01*
X141466000Y-113537640D01*
X141466000Y-114046360D01*
X141463284Y-114073938D01*
X141457029Y-114094557D01*
X141446876Y-114113553D01*
X141433208Y-114130208D01*
X141416553Y-114143876D01*
X141397557Y-114154029D01*
X141376938Y-114160284D01*
X141349360Y-114163000D01*
X140890640Y-114163000D01*
X140863062Y-114160284D01*
X140842443Y-114154029D01*
X140823447Y-114143876D01*
X140806792Y-114130208D01*
X140793124Y-114113553D01*
X140782971Y-114094557D01*
X140776716Y-114073938D01*
X140774000Y-114046360D01*
X140774000Y-113537640D01*
X140776716Y-113510062D01*
X140782971Y-113489443D01*
X140793124Y-113470447D01*
X140806792Y-113453792D01*
X140823447Y-113440124D01*
X140842443Y-113429971D01*
X140863062Y-113423716D01*
X140890640Y-113421000D01*
X141349360Y-113421000D01*
X141376938Y-113423716D01*
X141376938Y-113423716D01*
G37*
G36*
X142346938Y-113423716D02*
G01*
X142367557Y-113429971D01*
X142386553Y-113440124D01*
X142403208Y-113453792D01*
X142416876Y-113470447D01*
X142427029Y-113489443D01*
X142433284Y-113510062D01*
X142436000Y-113537640D01*
X142436000Y-114046360D01*
X142433284Y-114073938D01*
X142427029Y-114094557D01*
X142416876Y-114113553D01*
X142403208Y-114130208D01*
X142386553Y-114143876D01*
X142367557Y-114154029D01*
X142346938Y-114160284D01*
X142319360Y-114163000D01*
X141860640Y-114163000D01*
X141833062Y-114160284D01*
X141812443Y-114154029D01*
X141793447Y-114143876D01*
X141776792Y-114130208D01*
X141763124Y-114113553D01*
X141752971Y-114094557D01*
X141746716Y-114073938D01*
X141744000Y-114046360D01*
X141744000Y-113537640D01*
X141746716Y-113510062D01*
X141752971Y-113489443D01*
X141763124Y-113470447D01*
X141776792Y-113453792D01*
X141793447Y-113440124D01*
X141812443Y-113429971D01*
X141833062Y-113423716D01*
X141860640Y-113421000D01*
X142319360Y-113421000D01*
X142346938Y-113423716D01*
X142346938Y-113423716D01*
G37*
G36*
X143791938Y-113471716D02*
G01*
X143812557Y-113477971D01*
X143831553Y-113488124D01*
X143848208Y-113501792D01*
X143861876Y-113518447D01*
X143872029Y-113537443D01*
X143878284Y-113558062D01*
X143881000Y-113585640D01*
X143881000Y-114044360D01*
X143878284Y-114071938D01*
X143872029Y-114092557D01*
X143861876Y-114111553D01*
X143848208Y-114128208D01*
X143831553Y-114141876D01*
X143812557Y-114152029D01*
X143791938Y-114158284D01*
X143764360Y-114161000D01*
X143255640Y-114161000D01*
X143228062Y-114158284D01*
X143207443Y-114152029D01*
X143188447Y-114141876D01*
X143171792Y-114128208D01*
X143158124Y-114111553D01*
X143147971Y-114092557D01*
X143141716Y-114071938D01*
X143139000Y-114044360D01*
X143139000Y-113585640D01*
X143141716Y-113558062D01*
X143147971Y-113537443D01*
X143158124Y-113518447D01*
X143171792Y-113501792D01*
X143188447Y-113488124D01*
X143207443Y-113477971D01*
X143228062Y-113471716D01*
X143255640Y-113469000D01*
X143764360Y-113469000D01*
X143791938Y-113471716D01*
X143791938Y-113471716D01*
G37*
G36*
X137611824Y-112466314D02*
G01*
X137772243Y-112514977D01*
X137904907Y-112585887D01*
X137920079Y-112593997D01*
X138049660Y-112700342D01*
X138156005Y-112829923D01*
X138156006Y-112829925D01*
X138235025Y-112977759D01*
X138283688Y-113138178D01*
X138300118Y-113305001D01*
X138283688Y-113471824D01*
X138235025Y-113632243D01*
X138164115Y-113764907D01*
X138156005Y-113780079D01*
X138049660Y-113909660D01*
X137920079Y-114016005D01*
X137920077Y-114016006D01*
X137772243Y-114095025D01*
X137611824Y-114143688D01*
X137486805Y-114156001D01*
X137403197Y-114156001D01*
X137278178Y-114143688D01*
X137117759Y-114095025D01*
X136969925Y-114016006D01*
X136969923Y-114016005D01*
X136840342Y-113909660D01*
X136733997Y-113780079D01*
X136725887Y-113764907D01*
X136654977Y-113632243D01*
X136606314Y-113471824D01*
X136589884Y-113305001D01*
X136606314Y-113138178D01*
X136654977Y-112977759D01*
X136733996Y-112829925D01*
X136733997Y-112829923D01*
X136840342Y-112700342D01*
X136969923Y-112593997D01*
X136985095Y-112585887D01*
X137117759Y-112514977D01*
X137278178Y-112466314D01*
X137403197Y-112454001D01*
X137486805Y-112454001D01*
X137611824Y-112466314D01*
X137611824Y-112466314D01*
G37*
G36*
X150311824Y-112466314D02*
G01*
X150472243Y-112514977D01*
X150604907Y-112585887D01*
X150620079Y-112593997D01*
X150749660Y-112700342D01*
X150856005Y-112829923D01*
X150856006Y-112829925D01*
X150935025Y-112977759D01*
X150983688Y-113138178D01*
X151000118Y-113305001D01*
X150983688Y-113471824D01*
X150935025Y-113632243D01*
X150864115Y-113764907D01*
X150856005Y-113780079D01*
X150749660Y-113909660D01*
X150620079Y-114016005D01*
X150620077Y-114016006D01*
X150472243Y-114095025D01*
X150311824Y-114143688D01*
X150186805Y-114156001D01*
X150103197Y-114156001D01*
X149978178Y-114143688D01*
X149817759Y-114095025D01*
X149669925Y-114016006D01*
X149669923Y-114016005D01*
X149540342Y-113909660D01*
X149433997Y-113780079D01*
X149425887Y-113764907D01*
X149354977Y-113632243D01*
X149306314Y-113471824D01*
X149289884Y-113305001D01*
X149306314Y-113138178D01*
X149354977Y-112977759D01*
X149433996Y-112829925D01*
X149433997Y-112829923D01*
X149540342Y-112700342D01*
X149669923Y-112593997D01*
X149685095Y-112585887D01*
X149817759Y-112514977D01*
X149978178Y-112466314D01*
X150103197Y-112454001D01*
X150186805Y-112454001D01*
X150311824Y-112466314D01*
X150311824Y-112466314D01*
G37*
G36*
X146628000Y-113420000D02*
G01*
X145726000Y-113420000D01*
X145726000Y-112418000D01*
X146628000Y-112418000D01*
X146628000Y-113420000D01*
X146628000Y-113420000D01*
G37*
G36*
X143108938Y-111772716D02*
G01*
X143129557Y-111778971D01*
X143148553Y-111789124D01*
X143165208Y-111802792D01*
X143178876Y-111819447D01*
X143189029Y-111838443D01*
X143195284Y-111859062D01*
X143198000Y-111886640D01*
X143198000Y-112395360D01*
X143195284Y-112422938D01*
X143189029Y-112443557D01*
X143178876Y-112462553D01*
X143165208Y-112479208D01*
X143148553Y-112492876D01*
X143129557Y-112503029D01*
X143108938Y-112509284D01*
X143081360Y-112512000D01*
X142622640Y-112512000D01*
X142595062Y-112509284D01*
X142574443Y-112503029D01*
X142555447Y-112492876D01*
X142538792Y-112479208D01*
X142525124Y-112462553D01*
X142514971Y-112443557D01*
X142508716Y-112422938D01*
X142506000Y-112395360D01*
X142506000Y-111886640D01*
X142508716Y-111859062D01*
X142514971Y-111838443D01*
X142525124Y-111819447D01*
X142538792Y-111802792D01*
X142555447Y-111789124D01*
X142574443Y-111778971D01*
X142595062Y-111772716D01*
X142622640Y-111770000D01*
X143081360Y-111770000D01*
X143108938Y-111772716D01*
X143108938Y-111772716D01*
G37*
G36*
X142138938Y-111772716D02*
G01*
X142159557Y-111778971D01*
X142178553Y-111789124D01*
X142195208Y-111802792D01*
X142208876Y-111819447D01*
X142219029Y-111838443D01*
X142225284Y-111859062D01*
X142228000Y-111886640D01*
X142228000Y-112395360D01*
X142225284Y-112422938D01*
X142219029Y-112443557D01*
X142208876Y-112462553D01*
X142195208Y-112479208D01*
X142178553Y-112492876D01*
X142159557Y-112503029D01*
X142138938Y-112509284D01*
X142111360Y-112512000D01*
X141652640Y-112512000D01*
X141625062Y-112509284D01*
X141604443Y-112503029D01*
X141585447Y-112492876D01*
X141568792Y-112479208D01*
X141555124Y-112462553D01*
X141544971Y-112443557D01*
X141538716Y-112422938D01*
X141536000Y-112395360D01*
X141536000Y-111886640D01*
X141538716Y-111859062D01*
X141544971Y-111838443D01*
X141555124Y-111819447D01*
X141568792Y-111802792D01*
X141585447Y-111789124D01*
X141604443Y-111778971D01*
X141625062Y-111772716D01*
X141652640Y-111770000D01*
X142111360Y-111770000D01*
X142138938Y-111772716D01*
X142138938Y-111772716D01*
G37*
G36*
X137611824Y-109926314D02*
G01*
X137772243Y-109974977D01*
X137891556Y-110038751D01*
X137920079Y-110053997D01*
X138049660Y-110160342D01*
X138156005Y-110289923D01*
X138156006Y-110289925D01*
X138235025Y-110437759D01*
X138283688Y-110598178D01*
X138300118Y-110765001D01*
X138283688Y-110931824D01*
X138235025Y-111092243D01*
X138213775Y-111131999D01*
X138156005Y-111240079D01*
X138049660Y-111369660D01*
X137920079Y-111476005D01*
X137920077Y-111476006D01*
X137772243Y-111555025D01*
X137611824Y-111603688D01*
X137486805Y-111616001D01*
X137403197Y-111616001D01*
X137278178Y-111603688D01*
X137117759Y-111555025D01*
X136969925Y-111476006D01*
X136969923Y-111476005D01*
X136840342Y-111369660D01*
X136733997Y-111240079D01*
X136676227Y-111131999D01*
X136654977Y-111092243D01*
X136606314Y-110931824D01*
X136589884Y-110765001D01*
X136606314Y-110598178D01*
X136654977Y-110437759D01*
X136733996Y-110289925D01*
X136733997Y-110289923D01*
X136840342Y-110160342D01*
X136969923Y-110053997D01*
X136998446Y-110038751D01*
X137117759Y-109974977D01*
X137278178Y-109926314D01*
X137403197Y-109914001D01*
X137486805Y-109914001D01*
X137611824Y-109926314D01*
X137611824Y-109926314D01*
G37*
G36*
X150311824Y-109926314D02*
G01*
X150472243Y-109974977D01*
X150591556Y-110038751D01*
X150620079Y-110053997D01*
X150749660Y-110160342D01*
X150856005Y-110289923D01*
X150856006Y-110289925D01*
X150935025Y-110437759D01*
X150983688Y-110598178D01*
X151000118Y-110765001D01*
X150983688Y-110931824D01*
X150935025Y-111092243D01*
X150913775Y-111131999D01*
X150856005Y-111240079D01*
X150749660Y-111369660D01*
X150620079Y-111476005D01*
X150620077Y-111476006D01*
X150472243Y-111555025D01*
X150311824Y-111603688D01*
X150186805Y-111616001D01*
X150103197Y-111616001D01*
X149978178Y-111603688D01*
X149817759Y-111555025D01*
X149669925Y-111476006D01*
X149669923Y-111476005D01*
X149540342Y-111369660D01*
X149433997Y-111240079D01*
X149376227Y-111131999D01*
X149354977Y-111092243D01*
X149306314Y-110931824D01*
X149289884Y-110765001D01*
X149306314Y-110598178D01*
X149354977Y-110437759D01*
X149433996Y-110289925D01*
X149433997Y-110289923D01*
X149540342Y-110160342D01*
X149669923Y-110053997D01*
X149698446Y-110038751D01*
X149817759Y-109974977D01*
X149978178Y-109926314D01*
X150103197Y-109914001D01*
X150186805Y-109914001D01*
X150311824Y-109926314D01*
X150311824Y-109926314D01*
G37*
G36*
X147593999Y-111131999D02*
G01*
X146591999Y-111131999D01*
X146591999Y-110229999D01*
X147593999Y-110229999D01*
X147593999Y-111131999D01*
X147593999Y-111131999D01*
G37*
G36*
X141487000Y-111102000D02*
G01*
X140585000Y-111102000D01*
X140585000Y-110100000D01*
X141487000Y-110100000D01*
X141487000Y-111102000D01*
X141487000Y-111102000D01*
G37*
G36*
X143387000Y-111102000D02*
G01*
X142485000Y-111102000D01*
X142485000Y-110100000D01*
X143387000Y-110100000D01*
X143387000Y-111102000D01*
X143387000Y-111102000D01*
G37*
G36*
X148744938Y-109869716D02*
G01*
X148765557Y-109875971D01*
X148784553Y-109886124D01*
X148801208Y-109899792D01*
X148814876Y-109916447D01*
X148825029Y-109935443D01*
X148831284Y-109956062D01*
X148834000Y-109983640D01*
X148834000Y-110442360D01*
X148831284Y-110469938D01*
X148825029Y-110490557D01*
X148814876Y-110509553D01*
X148801208Y-110526208D01*
X148784553Y-110539876D01*
X148765557Y-110550029D01*
X148744938Y-110556284D01*
X148717360Y-110559000D01*
X148208640Y-110559000D01*
X148181062Y-110556284D01*
X148160443Y-110550029D01*
X148141447Y-110539876D01*
X148124792Y-110526208D01*
X148111124Y-110509553D01*
X148100971Y-110490557D01*
X148094716Y-110469938D01*
X148092000Y-110442360D01*
X148092000Y-109983640D01*
X148094716Y-109956062D01*
X148100971Y-109935443D01*
X148111124Y-109916447D01*
X148124792Y-109899792D01*
X148141447Y-109886124D01*
X148160443Y-109875971D01*
X148181062Y-109869716D01*
X148208640Y-109867000D01*
X148717360Y-109867000D01*
X148744938Y-109869716D01*
X148744938Y-109869716D01*
G37*
G36*
X145593999Y-110181999D02*
G01*
X144591999Y-110181999D01*
X144591999Y-109279999D01*
X145593999Y-109279999D01*
X145593999Y-110181999D01*
X145593999Y-110181999D01*
G37*
G36*
X139600938Y-109488716D02*
G01*
X139621557Y-109494971D01*
X139640553Y-109505124D01*
X139657208Y-109518792D01*
X139670876Y-109535447D01*
X139681029Y-109554443D01*
X139687284Y-109575062D01*
X139690000Y-109602640D01*
X139690000Y-110061360D01*
X139687284Y-110088938D01*
X139681029Y-110109557D01*
X139670876Y-110128553D01*
X139657208Y-110145208D01*
X139640553Y-110158876D01*
X139621557Y-110169029D01*
X139600938Y-110175284D01*
X139573360Y-110178000D01*
X139064640Y-110178000D01*
X139037062Y-110175284D01*
X139016443Y-110169029D01*
X138997447Y-110158876D01*
X138980792Y-110145208D01*
X138967124Y-110128553D01*
X138956971Y-110109557D01*
X138950716Y-110088938D01*
X138948000Y-110061360D01*
X138948000Y-109602640D01*
X138950716Y-109575062D01*
X138956971Y-109554443D01*
X138967124Y-109535447D01*
X138980792Y-109518792D01*
X138997447Y-109505124D01*
X139016443Y-109494971D01*
X139037062Y-109488716D01*
X139064640Y-109486000D01*
X139573360Y-109486000D01*
X139600938Y-109488716D01*
X139600938Y-109488716D01*
G37*
G36*
X148744938Y-108899716D02*
G01*
X148765557Y-108905971D01*
X148784553Y-108916124D01*
X148801208Y-108929792D01*
X148814876Y-108946447D01*
X148825029Y-108965443D01*
X148831284Y-108986062D01*
X148834000Y-109013640D01*
X148834000Y-109472360D01*
X148831284Y-109499938D01*
X148825029Y-109520557D01*
X148814876Y-109539553D01*
X148801208Y-109556208D01*
X148784553Y-109569876D01*
X148765557Y-109580029D01*
X148744938Y-109586284D01*
X148717360Y-109589000D01*
X148208640Y-109589000D01*
X148181062Y-109586284D01*
X148160443Y-109580029D01*
X148141447Y-109569876D01*
X148124792Y-109556208D01*
X148111124Y-109539553D01*
X148100971Y-109520557D01*
X148094716Y-109499938D01*
X148092000Y-109472360D01*
X148092000Y-109013640D01*
X148094716Y-108986062D01*
X148100971Y-108965443D01*
X148111124Y-108946447D01*
X148124792Y-108929792D01*
X148141447Y-108916124D01*
X148160443Y-108905971D01*
X148181062Y-108899716D01*
X148208640Y-108897000D01*
X148717360Y-108897000D01*
X148744938Y-108899716D01*
X148744938Y-108899716D01*
G37*
G36*
X147593999Y-109231999D02*
G01*
X146591999Y-109231999D01*
X146591999Y-108329999D01*
X147593999Y-108329999D01*
X147593999Y-109231999D01*
X147593999Y-109231999D01*
G37*
G36*
X139600938Y-108518716D02*
G01*
X139621557Y-108524971D01*
X139640553Y-108535124D01*
X139657208Y-108548792D01*
X139670876Y-108565447D01*
X139681029Y-108584443D01*
X139687284Y-108605062D01*
X139690000Y-108632640D01*
X139690000Y-109091360D01*
X139687284Y-109118938D01*
X139681029Y-109139557D01*
X139670876Y-109158553D01*
X139657208Y-109175208D01*
X139640553Y-109188876D01*
X139621557Y-109199029D01*
X139600938Y-109205284D01*
X139573360Y-109208000D01*
X139064640Y-109208000D01*
X139037062Y-109205284D01*
X139016443Y-109199029D01*
X138997447Y-109188876D01*
X138980792Y-109175208D01*
X138967124Y-109158553D01*
X138956971Y-109139557D01*
X138950716Y-109118938D01*
X138948000Y-109091360D01*
X138948000Y-108632640D01*
X138950716Y-108605062D01*
X138956971Y-108584443D01*
X138967124Y-108565447D01*
X138980792Y-108548792D01*
X138997447Y-108535124D01*
X139016443Y-108524971D01*
X139037062Y-108518716D01*
X139064640Y-108516000D01*
X139573360Y-108516000D01*
X139600938Y-108518716D01*
X139600938Y-108518716D01*
G37*
G36*
X142437000Y-109102000D02*
G01*
X141535000Y-109102000D01*
X141535000Y-108100000D01*
X142437000Y-108100000D01*
X142437000Y-109102000D01*
X142437000Y-109102000D01*
G37*
G36*
X150311824Y-107386314D02*
G01*
X150472243Y-107434977D01*
X150604907Y-107505887D01*
X150620079Y-107513997D01*
X150749660Y-107620342D01*
X150856005Y-107749923D01*
X150856006Y-107749925D01*
X150935025Y-107897759D01*
X150983688Y-108058178D01*
X151000118Y-108225001D01*
X150983688Y-108391824D01*
X150983687Y-108391826D01*
X150942025Y-108529169D01*
X150935025Y-108552243D01*
X150892052Y-108632640D01*
X150856005Y-108700079D01*
X150749660Y-108829660D01*
X150620079Y-108936005D01*
X150620077Y-108936006D01*
X150472243Y-109015025D01*
X150311824Y-109063688D01*
X150186805Y-109076001D01*
X150103197Y-109076001D01*
X149978178Y-109063688D01*
X149817759Y-109015025D01*
X149669925Y-108936006D01*
X149669923Y-108936005D01*
X149540342Y-108829660D01*
X149433997Y-108700079D01*
X149397950Y-108632640D01*
X149354977Y-108552243D01*
X149347978Y-108529169D01*
X149306315Y-108391826D01*
X149306314Y-108391824D01*
X149289884Y-108225001D01*
X149306314Y-108058178D01*
X149354977Y-107897759D01*
X149433996Y-107749925D01*
X149433997Y-107749923D01*
X149540342Y-107620342D01*
X149669923Y-107513997D01*
X149685095Y-107505887D01*
X149817759Y-107434977D01*
X149978178Y-107386314D01*
X150103197Y-107374001D01*
X150186805Y-107374001D01*
X150311824Y-107386314D01*
X150311824Y-107386314D01*
G37*
G36*
X137611824Y-107386314D02*
G01*
X137772243Y-107434977D01*
X137904907Y-107505887D01*
X137920079Y-107513997D01*
X138049660Y-107620342D01*
X138156005Y-107749923D01*
X138156006Y-107749925D01*
X138235025Y-107897759D01*
X138283688Y-108058178D01*
X138300118Y-108225001D01*
X138283688Y-108391824D01*
X138283687Y-108391826D01*
X138242025Y-108529169D01*
X138235025Y-108552243D01*
X138192052Y-108632640D01*
X138156005Y-108700079D01*
X138049660Y-108829660D01*
X137920079Y-108936005D01*
X137920077Y-108936006D01*
X137772243Y-109015025D01*
X137611824Y-109063688D01*
X137486805Y-109076001D01*
X137403197Y-109076001D01*
X137278178Y-109063688D01*
X137117759Y-109015025D01*
X136969925Y-108936006D01*
X136969923Y-108936005D01*
X136840342Y-108829660D01*
X136733997Y-108700079D01*
X136697950Y-108632640D01*
X136654977Y-108552243D01*
X136647978Y-108529169D01*
X136606315Y-108391826D01*
X136606314Y-108391824D01*
X136589884Y-108225001D01*
X136606314Y-108058178D01*
X136654977Y-107897759D01*
X136733996Y-107749925D01*
X136733997Y-107749923D01*
X136840342Y-107620342D01*
X136969923Y-107513997D01*
X136985095Y-107505887D01*
X137117759Y-107434977D01*
X137278178Y-107386314D01*
X137403197Y-107374001D01*
X137486805Y-107374001D01*
X137611824Y-107386314D01*
X137611824Y-107386314D01*
G37*
G36*
X147551000Y-106811000D02*
G01*
X146549000Y-106811000D01*
X146549000Y-105909000D01*
X147551000Y-105909000D01*
X147551000Y-106811000D01*
X147551000Y-106811000D01*
G37*
G36*
X142437000Y-106784000D02*
G01*
X141535000Y-106784000D01*
X141535000Y-105782000D01*
X142437000Y-105782000D01*
X142437000Y-106784000D01*
X142437000Y-106784000D01*
G37*
G36*
X150311824Y-104846314D02*
G01*
X150472243Y-104894977D01*
X150562379Y-104943156D01*
X150620079Y-104973997D01*
X150749660Y-105080342D01*
X150856005Y-105209923D01*
X150856006Y-105209925D01*
X150935025Y-105357759D01*
X150983688Y-105518178D01*
X151000118Y-105685001D01*
X150983688Y-105851824D01*
X150935025Y-106012243D01*
X150905222Y-106068000D01*
X150856005Y-106160079D01*
X150749660Y-106289660D01*
X150620079Y-106396005D01*
X150620077Y-106396006D01*
X150472243Y-106475025D01*
X150311824Y-106523688D01*
X150186805Y-106536001D01*
X150103197Y-106536001D01*
X149978178Y-106523688D01*
X149817759Y-106475025D01*
X149669925Y-106396006D01*
X149669923Y-106396005D01*
X149540342Y-106289660D01*
X149433997Y-106160079D01*
X149384780Y-106068000D01*
X149354977Y-106012243D01*
X149306314Y-105851824D01*
X149289884Y-105685001D01*
X149306314Y-105518178D01*
X149354977Y-105357759D01*
X149433996Y-105209925D01*
X149433997Y-105209923D01*
X149540342Y-105080342D01*
X149669923Y-104973997D01*
X149727623Y-104943156D01*
X149817759Y-104894977D01*
X149978178Y-104846314D01*
X150103197Y-104834001D01*
X150186805Y-104834001D01*
X150311824Y-104846314D01*
X150311824Y-104846314D01*
G37*
G36*
X137611824Y-104846314D02*
G01*
X137772243Y-104894977D01*
X137862379Y-104943156D01*
X137920079Y-104973997D01*
X138049660Y-105080342D01*
X138156005Y-105209923D01*
X138156006Y-105209925D01*
X138235025Y-105357759D01*
X138283688Y-105518178D01*
X138300118Y-105685001D01*
X138283688Y-105851824D01*
X138235025Y-106012243D01*
X138205222Y-106068000D01*
X138156005Y-106160079D01*
X138049660Y-106289660D01*
X137920079Y-106396005D01*
X137920077Y-106396006D01*
X137772243Y-106475025D01*
X137611824Y-106523688D01*
X137486805Y-106536001D01*
X137403197Y-106536001D01*
X137278178Y-106523688D01*
X137117759Y-106475025D01*
X136969925Y-106396006D01*
X136969923Y-106396005D01*
X136840342Y-106289660D01*
X136733997Y-106160079D01*
X136684780Y-106068000D01*
X136654977Y-106012243D01*
X136606314Y-105851824D01*
X136589884Y-105685001D01*
X136606314Y-105518178D01*
X136654977Y-105357759D01*
X136733996Y-105209925D01*
X136733997Y-105209923D01*
X136840342Y-105080342D01*
X136969923Y-104973997D01*
X137027623Y-104943156D01*
X137117759Y-104894977D01*
X137278178Y-104846314D01*
X137403197Y-104834001D01*
X137486805Y-104834001D01*
X137611824Y-104846314D01*
X137611824Y-104846314D01*
G37*
G36*
X148744938Y-105551716D02*
G01*
X148765557Y-105557971D01*
X148784553Y-105568124D01*
X148801208Y-105581792D01*
X148814876Y-105598447D01*
X148825029Y-105617443D01*
X148831284Y-105638062D01*
X148834000Y-105665640D01*
X148834000Y-106124360D01*
X148831284Y-106151938D01*
X148825029Y-106172557D01*
X148814876Y-106191553D01*
X148801208Y-106208208D01*
X148784553Y-106221876D01*
X148765557Y-106232029D01*
X148744938Y-106238284D01*
X148717360Y-106241000D01*
X148208640Y-106241000D01*
X148181062Y-106238284D01*
X148160443Y-106232029D01*
X148141447Y-106221876D01*
X148124792Y-106208208D01*
X148111124Y-106191553D01*
X148100971Y-106172557D01*
X148094716Y-106151938D01*
X148092000Y-106124360D01*
X148092000Y-105665640D01*
X148094716Y-105638062D01*
X148100971Y-105617443D01*
X148111124Y-105598447D01*
X148124792Y-105581792D01*
X148141447Y-105568124D01*
X148160443Y-105557971D01*
X148181062Y-105551716D01*
X148208640Y-105549000D01*
X148717360Y-105549000D01*
X148744938Y-105551716D01*
X148744938Y-105551716D01*
G37*
G36*
X145551000Y-105861000D02*
G01*
X144549000Y-105861000D01*
X144549000Y-104959000D01*
X145551000Y-104959000D01*
X145551000Y-105861000D01*
X145551000Y-105861000D01*
G37*
G36*
X139600938Y-104916716D02*
G01*
X139621557Y-104922971D01*
X139640553Y-104933124D01*
X139657208Y-104946792D01*
X139670876Y-104963447D01*
X139681029Y-104982443D01*
X139687284Y-105003062D01*
X139690000Y-105030640D01*
X139690000Y-105489360D01*
X139687284Y-105516938D01*
X139681029Y-105537557D01*
X139670876Y-105556553D01*
X139657208Y-105573208D01*
X139640553Y-105586876D01*
X139621557Y-105597029D01*
X139600938Y-105603284D01*
X139573360Y-105606000D01*
X139064640Y-105606000D01*
X139037062Y-105603284D01*
X139016443Y-105597029D01*
X138997447Y-105586876D01*
X138980792Y-105573208D01*
X138967124Y-105556553D01*
X138956971Y-105537557D01*
X138950716Y-105516938D01*
X138948000Y-105489360D01*
X138948000Y-105030640D01*
X138950716Y-105003062D01*
X138956971Y-104982443D01*
X138967124Y-104963447D01*
X138980792Y-104946792D01*
X138997447Y-104933124D01*
X139016443Y-104922971D01*
X139037062Y-104916716D01*
X139064640Y-104914000D01*
X139573360Y-104914000D01*
X139600938Y-104916716D01*
X139600938Y-104916716D01*
G37*
G36*
X148744938Y-104581716D02*
G01*
X148765557Y-104587971D01*
X148784553Y-104598124D01*
X148801208Y-104611792D01*
X148814876Y-104628447D01*
X148825029Y-104647443D01*
X148831284Y-104668062D01*
X148834000Y-104695640D01*
X148834000Y-105154360D01*
X148831284Y-105181938D01*
X148825029Y-105202557D01*
X148814876Y-105221553D01*
X148801208Y-105238208D01*
X148784553Y-105251876D01*
X148765557Y-105262029D01*
X148744938Y-105268284D01*
X148717360Y-105271000D01*
X148208640Y-105271000D01*
X148181062Y-105268284D01*
X148160443Y-105262029D01*
X148141447Y-105251876D01*
X148124792Y-105238208D01*
X148111124Y-105221553D01*
X148100971Y-105202557D01*
X148094716Y-105181938D01*
X148092000Y-105154360D01*
X148092000Y-104695640D01*
X148094716Y-104668062D01*
X148100971Y-104647443D01*
X148111124Y-104628447D01*
X148124792Y-104611792D01*
X148141447Y-104598124D01*
X148160443Y-104587971D01*
X148181062Y-104581716D01*
X148208640Y-104579000D01*
X148717360Y-104579000D01*
X148744938Y-104581716D01*
X148744938Y-104581716D01*
G37*
G36*
X147551000Y-104911000D02*
G01*
X146549000Y-104911000D01*
X146549000Y-104009000D01*
X147551000Y-104009000D01*
X147551000Y-104911000D01*
X147551000Y-104911000D01*
G37*
G36*
X143387000Y-104784000D02*
G01*
X142485000Y-104784000D01*
X142485000Y-103782000D01*
X143387000Y-103782000D01*
X143387000Y-104784000D01*
X143387000Y-104784000D01*
G37*
G36*
X141487000Y-104784000D02*
G01*
X140585000Y-104784000D01*
X140585000Y-103782000D01*
X141487000Y-103782000D01*
X141487000Y-104784000D01*
X141487000Y-104784000D01*
G37*
G36*
X139600938Y-103946716D02*
G01*
X139621557Y-103952971D01*
X139640553Y-103963124D01*
X139657208Y-103976792D01*
X139670876Y-103993447D01*
X139681029Y-104012443D01*
X139687284Y-104033062D01*
X139690000Y-104060640D01*
X139690000Y-104519360D01*
X139687284Y-104546938D01*
X139681029Y-104567557D01*
X139670876Y-104586553D01*
X139657208Y-104603208D01*
X139640553Y-104616876D01*
X139621557Y-104627029D01*
X139600938Y-104633284D01*
X139573360Y-104636000D01*
X139064640Y-104636000D01*
X139037062Y-104633284D01*
X139016443Y-104627029D01*
X138997447Y-104616876D01*
X138980792Y-104603208D01*
X138967124Y-104586553D01*
X138956971Y-104567557D01*
X138950716Y-104546938D01*
X138948000Y-104519360D01*
X138948000Y-104060640D01*
X138950716Y-104033062D01*
X138956971Y-104012443D01*
X138967124Y-103993447D01*
X138980792Y-103976792D01*
X138997447Y-103963124D01*
X139016443Y-103952971D01*
X139037062Y-103946716D01*
X139064640Y-103944000D01*
X139573360Y-103944000D01*
X139600938Y-103946716D01*
X139600938Y-103946716D01*
G37*
G36*
X150311824Y-102306314D02*
G01*
X150472243Y-102354977D01*
X150604907Y-102425887D01*
X150620079Y-102433997D01*
X150749660Y-102540342D01*
X150856005Y-102669923D01*
X150856006Y-102669925D01*
X150935025Y-102817759D01*
X150983688Y-102978178D01*
X151000118Y-103145001D01*
X150983688Y-103311824D01*
X150935025Y-103472243D01*
X150864115Y-103604907D01*
X150856005Y-103620079D01*
X150749660Y-103749660D01*
X150620079Y-103856005D01*
X150620077Y-103856006D01*
X150472243Y-103935025D01*
X150311824Y-103983688D01*
X150186805Y-103996001D01*
X150103197Y-103996001D01*
X149978178Y-103983688D01*
X149817759Y-103935025D01*
X149669925Y-103856006D01*
X149669923Y-103856005D01*
X149540342Y-103749660D01*
X149433997Y-103620079D01*
X149425887Y-103604907D01*
X149354977Y-103472243D01*
X149306314Y-103311824D01*
X149289884Y-103145001D01*
X149306314Y-102978178D01*
X149354977Y-102817759D01*
X149433996Y-102669925D01*
X149433997Y-102669923D01*
X149540342Y-102540342D01*
X149669923Y-102433997D01*
X149685095Y-102425887D01*
X149817759Y-102354977D01*
X149978178Y-102306314D01*
X150103197Y-102294001D01*
X150186805Y-102294001D01*
X150311824Y-102306314D01*
X150311824Y-102306314D01*
G37*
G36*
X137611824Y-102306314D02*
G01*
X137772243Y-102354977D01*
X137904907Y-102425887D01*
X137920079Y-102433997D01*
X138049660Y-102540342D01*
X138156005Y-102669923D01*
X138156006Y-102669925D01*
X138235025Y-102817759D01*
X138283688Y-102978178D01*
X138300118Y-103145001D01*
X138283688Y-103311824D01*
X138235025Y-103472243D01*
X138164115Y-103604907D01*
X138156005Y-103620079D01*
X138049660Y-103749660D01*
X137920079Y-103856005D01*
X137920077Y-103856006D01*
X137772243Y-103935025D01*
X137611824Y-103983688D01*
X137486805Y-103996001D01*
X137403197Y-103996001D01*
X137278178Y-103983688D01*
X137117759Y-103935025D01*
X136969925Y-103856006D01*
X136969923Y-103856005D01*
X136840342Y-103749660D01*
X136733997Y-103620079D01*
X136725887Y-103604907D01*
X136654977Y-103472243D01*
X136606314Y-103311824D01*
X136589884Y-103145001D01*
X136606314Y-102978178D01*
X136654977Y-102817759D01*
X136733996Y-102669925D01*
X136733997Y-102669923D01*
X136840342Y-102540342D01*
X136969923Y-102433997D01*
X136985095Y-102425887D01*
X137117759Y-102354977D01*
X137278178Y-102306314D01*
X137403197Y-102294001D01*
X137486805Y-102294001D01*
X137611824Y-102306314D01*
X137611824Y-102306314D01*
G37*
G36*
X142727938Y-102501716D02*
G01*
X142748557Y-102507971D01*
X142767553Y-102518124D01*
X142784208Y-102531792D01*
X142797876Y-102548447D01*
X142808029Y-102567443D01*
X142814284Y-102588062D01*
X142817000Y-102615640D01*
X142817000Y-103124360D01*
X142814284Y-103151938D01*
X142808029Y-103172557D01*
X142797876Y-103191553D01*
X142784208Y-103208208D01*
X142767553Y-103221876D01*
X142748557Y-103232029D01*
X142727938Y-103238284D01*
X142700360Y-103241000D01*
X142241640Y-103241000D01*
X142214062Y-103238284D01*
X142193443Y-103232029D01*
X142174447Y-103221876D01*
X142157792Y-103208208D01*
X142144124Y-103191553D01*
X142133971Y-103172557D01*
X142127716Y-103151938D01*
X142125000Y-103124360D01*
X142125000Y-102615640D01*
X142127716Y-102588062D01*
X142133971Y-102567443D01*
X142144124Y-102548447D01*
X142157792Y-102531792D01*
X142174447Y-102518124D01*
X142193443Y-102507971D01*
X142214062Y-102501716D01*
X142241640Y-102499000D01*
X142700360Y-102499000D01*
X142727938Y-102501716D01*
X142727938Y-102501716D01*
G37*
G36*
X141757938Y-102501716D02*
G01*
X141778557Y-102507971D01*
X141797553Y-102518124D01*
X141814208Y-102531792D01*
X141827876Y-102548447D01*
X141838029Y-102567443D01*
X141844284Y-102588062D01*
X141847000Y-102615640D01*
X141847000Y-103124360D01*
X141844284Y-103151938D01*
X141838029Y-103172557D01*
X141827876Y-103191553D01*
X141814208Y-103208208D01*
X141797553Y-103221876D01*
X141778557Y-103232029D01*
X141757938Y-103238284D01*
X141730360Y-103241000D01*
X141271640Y-103241000D01*
X141244062Y-103238284D01*
X141223443Y-103232029D01*
X141204447Y-103221876D01*
X141187792Y-103208208D01*
X141174124Y-103191553D01*
X141163971Y-103172557D01*
X141157716Y-103151938D01*
X141155000Y-103124360D01*
X141155000Y-102615640D01*
X141157716Y-102588062D01*
X141163971Y-102567443D01*
X141174124Y-102548447D01*
X141187792Y-102531792D01*
X141204447Y-102518124D01*
X141223443Y-102507971D01*
X141244062Y-102501716D01*
X141271640Y-102499000D01*
X141730360Y-102499000D01*
X141757938Y-102501716D01*
X141757938Y-102501716D01*
G37*
G36*
X150311824Y-99766314D02*
G01*
X150472243Y-99814977D01*
X150556688Y-99860114D01*
X150620079Y-99893997D01*
X150749660Y-100000342D01*
X150856005Y-100129923D01*
X150856006Y-100129925D01*
X150935025Y-100277759D01*
X150983688Y-100438178D01*
X151000118Y-100605001D01*
X150983688Y-100771824D01*
X150935025Y-100932243D01*
X150864115Y-101064907D01*
X150856005Y-101080079D01*
X150749660Y-101209660D01*
X150620079Y-101316005D01*
X150620077Y-101316006D01*
X150472243Y-101395025D01*
X150311824Y-101443688D01*
X150186805Y-101456001D01*
X150103197Y-101456001D01*
X149978178Y-101443688D01*
X149817759Y-101395025D01*
X149669925Y-101316006D01*
X149669923Y-101316005D01*
X149540342Y-101209660D01*
X149433997Y-101080079D01*
X149425887Y-101064907D01*
X149354977Y-100932243D01*
X149306314Y-100771824D01*
X149289884Y-100605001D01*
X149306314Y-100438178D01*
X149354977Y-100277759D01*
X149433996Y-100129925D01*
X149433997Y-100129923D01*
X149540342Y-100000342D01*
X149669923Y-99893997D01*
X149733314Y-99860114D01*
X149817759Y-99814977D01*
X149978178Y-99766314D01*
X150103197Y-99754001D01*
X150186805Y-99754001D01*
X150311824Y-99766314D01*
X150311824Y-99766314D01*
G37*
G36*
X137611824Y-99766314D02*
G01*
X137772243Y-99814977D01*
X137856688Y-99860114D01*
X137920079Y-99893997D01*
X138049660Y-100000342D01*
X138156005Y-100129923D01*
X138156006Y-100129925D01*
X138235025Y-100277759D01*
X138283688Y-100438178D01*
X138300118Y-100605001D01*
X138283688Y-100771824D01*
X138235025Y-100932243D01*
X138164115Y-101064907D01*
X138156005Y-101080079D01*
X138049660Y-101209660D01*
X137920079Y-101316005D01*
X137920077Y-101316006D01*
X137772243Y-101395025D01*
X137611824Y-101443688D01*
X137486805Y-101456001D01*
X137403197Y-101456001D01*
X137278178Y-101443688D01*
X137117759Y-101395025D01*
X136969925Y-101316006D01*
X136969923Y-101316005D01*
X136840342Y-101209660D01*
X136733997Y-101080079D01*
X136725887Y-101064907D01*
X136654977Y-100932243D01*
X136606314Y-100771824D01*
X136589884Y-100605001D01*
X136606314Y-100438178D01*
X136654977Y-100277759D01*
X136733996Y-100129925D01*
X136733997Y-100129923D01*
X136840342Y-100000342D01*
X136969923Y-99893997D01*
X137033314Y-99860114D01*
X137117759Y-99814977D01*
X137278178Y-99766314D01*
X137403197Y-99754001D01*
X137486805Y-99754001D01*
X137611824Y-99766314D01*
X137611824Y-99766314D01*
G37*
G36*
X142437000Y-101450000D02*
G01*
X141535000Y-101450000D01*
X141535000Y-100448000D01*
X142437000Y-100448000D01*
X142437000Y-101450000D01*
X142437000Y-101450000D01*
G37*
G36*
X147551000Y-101350000D02*
G01*
X146549000Y-101350000D01*
X146549000Y-100448000D01*
X147551000Y-100448000D01*
X147551000Y-101350000D01*
X147551000Y-101350000D01*
G37*
G36*
X139727938Y-100217716D02*
G01*
X139748557Y-100223971D01*
X139767553Y-100234124D01*
X139784208Y-100247792D01*
X139797876Y-100264447D01*
X139808029Y-100283443D01*
X139814284Y-100304062D01*
X139817000Y-100331640D01*
X139817000Y-100790360D01*
X139814284Y-100817938D01*
X139808029Y-100838557D01*
X139797876Y-100857553D01*
X139784208Y-100874208D01*
X139767553Y-100887876D01*
X139748557Y-100898029D01*
X139727938Y-100904284D01*
X139700360Y-100907000D01*
X139191640Y-100907000D01*
X139164062Y-100904284D01*
X139143443Y-100898029D01*
X139124447Y-100887876D01*
X139107792Y-100874208D01*
X139094124Y-100857553D01*
X139083971Y-100838557D01*
X139077716Y-100817938D01*
X139075000Y-100790360D01*
X139075000Y-100331640D01*
X139077716Y-100304062D01*
X139083971Y-100283443D01*
X139094124Y-100264447D01*
X139107792Y-100247792D01*
X139124447Y-100234124D01*
X139143443Y-100223971D01*
X139164062Y-100217716D01*
X139191640Y-100215000D01*
X139700360Y-100215000D01*
X139727938Y-100217716D01*
X139727938Y-100217716D01*
G37*
G36*
X148744938Y-100090716D02*
G01*
X148765557Y-100096971D01*
X148784553Y-100107124D01*
X148801208Y-100120792D01*
X148814876Y-100137447D01*
X148825029Y-100156443D01*
X148831284Y-100177062D01*
X148834000Y-100204640D01*
X148834000Y-100663360D01*
X148831284Y-100690938D01*
X148825029Y-100711557D01*
X148814876Y-100730553D01*
X148801208Y-100747208D01*
X148784553Y-100760876D01*
X148765557Y-100771029D01*
X148744938Y-100777284D01*
X148717360Y-100780000D01*
X148208640Y-100780000D01*
X148181062Y-100777284D01*
X148160443Y-100771029D01*
X148141447Y-100760876D01*
X148124792Y-100747208D01*
X148111124Y-100730553D01*
X148100971Y-100711557D01*
X148094716Y-100690938D01*
X148092000Y-100663360D01*
X148092000Y-100204640D01*
X148094716Y-100177062D01*
X148100971Y-100156443D01*
X148111124Y-100137447D01*
X148124792Y-100120792D01*
X148141447Y-100107124D01*
X148160443Y-100096971D01*
X148181062Y-100090716D01*
X148208640Y-100088000D01*
X148717360Y-100088000D01*
X148744938Y-100090716D01*
X148744938Y-100090716D01*
G37*
G36*
X145551000Y-100400000D02*
G01*
X144549000Y-100400000D01*
X144549000Y-99498000D01*
X145551000Y-99498000D01*
X145551000Y-100400000D01*
X145551000Y-100400000D01*
G37*
G36*
X139727938Y-99247716D02*
G01*
X139748557Y-99253971D01*
X139767553Y-99264124D01*
X139784208Y-99277792D01*
X139797876Y-99294447D01*
X139808029Y-99313443D01*
X139814284Y-99334062D01*
X139817000Y-99361640D01*
X139817000Y-99820360D01*
X139814284Y-99847938D01*
X139808029Y-99868557D01*
X139797876Y-99887553D01*
X139784208Y-99904208D01*
X139767553Y-99917876D01*
X139748557Y-99928029D01*
X139727938Y-99934284D01*
X139700360Y-99937000D01*
X139191640Y-99937000D01*
X139164062Y-99934284D01*
X139143443Y-99928029D01*
X139124447Y-99917876D01*
X139107792Y-99904208D01*
X139094124Y-99887553D01*
X139083971Y-99868557D01*
X139077716Y-99847938D01*
X139075000Y-99820360D01*
X139075000Y-99361640D01*
X139077716Y-99334062D01*
X139083971Y-99313443D01*
X139094124Y-99294447D01*
X139107792Y-99277792D01*
X139124447Y-99264124D01*
X139143443Y-99253971D01*
X139164062Y-99247716D01*
X139191640Y-99245000D01*
X139700360Y-99245000D01*
X139727938Y-99247716D01*
X139727938Y-99247716D01*
G37*
G36*
X148744938Y-99120716D02*
G01*
X148765557Y-99126971D01*
X148784553Y-99137124D01*
X148801208Y-99150792D01*
X148814876Y-99167447D01*
X148825029Y-99186443D01*
X148831284Y-99207062D01*
X148834000Y-99234640D01*
X148834000Y-99693360D01*
X148831284Y-99720938D01*
X148825029Y-99741557D01*
X148814876Y-99760553D01*
X148801208Y-99777208D01*
X148784553Y-99790876D01*
X148765557Y-99801029D01*
X148744938Y-99807284D01*
X148717360Y-99810000D01*
X148208640Y-99810000D01*
X148181062Y-99807284D01*
X148160443Y-99801029D01*
X148141447Y-99790876D01*
X148124792Y-99777208D01*
X148111124Y-99760553D01*
X148100971Y-99741557D01*
X148094716Y-99720938D01*
X148092000Y-99693360D01*
X148092000Y-99234640D01*
X148094716Y-99207062D01*
X148100971Y-99186443D01*
X148111124Y-99167447D01*
X148124792Y-99150792D01*
X148141447Y-99137124D01*
X148160443Y-99126971D01*
X148181062Y-99120716D01*
X148208640Y-99118000D01*
X148717360Y-99118000D01*
X148744938Y-99120716D01*
X148744938Y-99120716D01*
G37*
G36*
X141487000Y-99450000D02*
G01*
X140585000Y-99450000D01*
X140585000Y-98448000D01*
X141487000Y-98448000D01*
X141487000Y-99450000D01*
X141487000Y-99450000D01*
G37*
G36*
X147551000Y-99450000D02*
G01*
X146549000Y-99450000D01*
X146549000Y-98548000D01*
X147551000Y-98548000D01*
X147551000Y-99450000D01*
X147551000Y-99450000D01*
G37*
G36*
X143387000Y-99450000D02*
G01*
X142485000Y-99450000D01*
X142485000Y-98448000D01*
X143387000Y-98448000D01*
X143387000Y-99450000D01*
X143387000Y-99450000D01*
G37*
G36*
X150311824Y-97226314D02*
G01*
X150472243Y-97274977D01*
X150604907Y-97345887D01*
X150620079Y-97353997D01*
X150749660Y-97460342D01*
X150856005Y-97589923D01*
X150856006Y-97589925D01*
X150935025Y-97737759D01*
X150983688Y-97898178D01*
X151000118Y-98065001D01*
X150983688Y-98231824D01*
X150935025Y-98392243D01*
X150905222Y-98448000D01*
X150856005Y-98540079D01*
X150749660Y-98669660D01*
X150620079Y-98776005D01*
X150620077Y-98776006D01*
X150472243Y-98855025D01*
X150311824Y-98903688D01*
X150186805Y-98916001D01*
X150103197Y-98916001D01*
X149978178Y-98903688D01*
X149817759Y-98855025D01*
X149669925Y-98776006D01*
X149669923Y-98776005D01*
X149540342Y-98669660D01*
X149433997Y-98540079D01*
X149384780Y-98448000D01*
X149354977Y-98392243D01*
X149306314Y-98231824D01*
X149289884Y-98065001D01*
X149306314Y-97898178D01*
X149354977Y-97737759D01*
X149433996Y-97589925D01*
X149433997Y-97589923D01*
X149540342Y-97460342D01*
X149669923Y-97353997D01*
X149685095Y-97345887D01*
X149817759Y-97274977D01*
X149978178Y-97226314D01*
X150103197Y-97214001D01*
X150186805Y-97214001D01*
X150311824Y-97226314D01*
X150311824Y-97226314D01*
G37*
G36*
X138296001Y-98916001D02*
G01*
X136594001Y-98916001D01*
X136594001Y-97214001D01*
X138296001Y-97214001D01*
X138296001Y-98916001D01*
X138296001Y-98916001D01*
G37*
G36*
X142854938Y-97167716D02*
G01*
X142875557Y-97173971D01*
X142894553Y-97184124D01*
X142911208Y-97197792D01*
X142924876Y-97214447D01*
X142935029Y-97233443D01*
X142941284Y-97254062D01*
X142944000Y-97281640D01*
X142944000Y-97790360D01*
X142941284Y-97817938D01*
X142935029Y-97838557D01*
X142924876Y-97857553D01*
X142911208Y-97874208D01*
X142894553Y-97887876D01*
X142875557Y-97898029D01*
X142854938Y-97904284D01*
X142827360Y-97907000D01*
X142368640Y-97907000D01*
X142341062Y-97904284D01*
X142320443Y-97898029D01*
X142301447Y-97887876D01*
X142284792Y-97874208D01*
X142271124Y-97857553D01*
X142260971Y-97838557D01*
X142254716Y-97817938D01*
X142252000Y-97790360D01*
X142252000Y-97281640D01*
X142254716Y-97254062D01*
X142260971Y-97233443D01*
X142271124Y-97214447D01*
X142284792Y-97197792D01*
X142301447Y-97184124D01*
X142320443Y-97173971D01*
X142341062Y-97167716D01*
X142368640Y-97165000D01*
X142827360Y-97165000D01*
X142854938Y-97167716D01*
X142854938Y-97167716D01*
G37*
G36*
X141884938Y-97167716D02*
G01*
X141905557Y-97173971D01*
X141924553Y-97184124D01*
X141941208Y-97197792D01*
X141954876Y-97214447D01*
X141965029Y-97233443D01*
X141971284Y-97254062D01*
X141974000Y-97281640D01*
X141974000Y-97790360D01*
X141971284Y-97817938D01*
X141965029Y-97838557D01*
X141954876Y-97857553D01*
X141941208Y-97874208D01*
X141924553Y-97887876D01*
X141905557Y-97898029D01*
X141884938Y-97904284D01*
X141857360Y-97907000D01*
X141398640Y-97907000D01*
X141371062Y-97904284D01*
X141350443Y-97898029D01*
X141331447Y-97887876D01*
X141314792Y-97874208D01*
X141301124Y-97857553D01*
X141290971Y-97838557D01*
X141284716Y-97817938D01*
X141282000Y-97790360D01*
X141282000Y-97281640D01*
X141284716Y-97254062D01*
X141290971Y-97233443D01*
X141301124Y-97214447D01*
X141314792Y-97197792D01*
X141331447Y-97184124D01*
X141350443Y-97173971D01*
X141371062Y-97167716D01*
X141398640Y-97165000D01*
X141857360Y-97165000D01*
X141884938Y-97167716D01*
X141884938Y-97167716D01*
G37*
M02*
